tidydice
…
In only 4 of 10000 (0.04%) cases success is below 5 or above 30. So the probability to get this result is very low.

We can check that with the binomial distribution too:

binom_dice(times = 100) %>% 
  filter(success < 5 | success > 30)
#> # A tibble: 75 x 3
#>    success            p        pct
#>      <int>        <dbl>      <dbl>
#>  1       0 0.0000000121 0.00000121
#>  2       1 0.000000241  0.0000241 
#>  3       2 0.00000239   0.000239  
#>  4       3 0.0000156    0.00156   
#>  5       4 0.0000758    0.00758   
#>  6      31 0.000172     0.0172    
#>  7      32 0.0000742    0.00742   
#>  8      33 0.0000306    0.00306   
#>  9      34 0.0000120    0.00120   
#> 10      35 0.00000454   0.000454  
#> # ... with 65 more rows
…
